C:/Users/flba/Desktop/o/en.stm32cubewl_v1-2-0/STM32Cube_FW_WL_V1.2.0/Projects/NUCLEO-WL55JC/Applications/LoRaWAN/LoRaWAN_End_Node/LoRaWAN/Target/radio_board_if.c:59:9:RBI_Init	8	static
C:/Users/flba/Desktop/o/en.stm32cubewl_v1-2-0/STM32Cube_FW_WL_V1.2.0/Projects/NUCLEO-WL55JC/Applications/LoRaWAN/LoRaWAN_End_Node/LoRaWAN/Target/radio_board_if.c:85:9:RBI_DeInit	8	static
C:/Users/flba/Desktop/o/en.stm32cubewl_v1-2-0/STM32Cube_FW_WL_V1.2.0/Projects/NUCLEO-WL55JC/Applications/LoRaWAN/LoRaWAN_End_Node/LoRaWAN/Target/radio_board_if.c:111:9:RBI_ConfigRFSwitch	8	static
C:/Users/flba/Desktop/o/en.stm32cubewl_v1-2-0/STM32Cube_FW_WL_V1.2.0/Projects/NUCLEO-WL55JC/Applications/LoRaWAN/LoRaWAN_End_Node/LoRaWAN/Target/radio_board_if.c:138:9:RBI_GetTxConfig	8	static
C:/Users/flba/Desktop/o/en.stm32cubewl_v1-2-0/STM32Cube_FW_WL_V1.2.0/Projects/NUCLEO-WL55JC/Applications/LoRaWAN/LoRaWAN_End_Node/LoRaWAN/Target/radio_board_if.c:164:9:RBI_IsTCXO	8	static
C:/Users/flba/Desktop/o/en.stm32cubewl_v1-2-0/STM32Cube_FW_WL_V1.2.0/Projects/NUCLEO-WL55JC/Applications/LoRaWAN/LoRaWAN_End_Node/LoRaWAN/Target/radio_board_if.c:190:9:RBI_IsDCDC	8	static
C:/Users/flba/Desktop/o/en.stm32cubewl_v1-2-0/STM32Cube_FW_WL_V1.2.0/Projects/NUCLEO-WL55JC/Applications/LoRaWAN/LoRaWAN_End_Node/LoRaWAN/Target/radio_board_if.c:216:9:RBI_GetRFOMaxPowerConfig	8	static
