{
  "end_device_ids": {
    "device_id": "eui-0080e115000a98f4",
    "application_ids": {
      "application_id": "testapp12349182"
    },
    "dev_eui": "0080E115000A98F4",
    "join_eui": "2121212121212121",
    "dev_addr": "260BF1CF"
  },
  "correlation_ids": [
    "as:up:01G94ACV8VMV2EQGAT70DBQ94W",
    "gs:conn:01G8CFD5WQP1MFSXKF0VD8TTD6",
    "gs:up:host:01G8CFD5XR9TC9867B33RTPWW4",
    "gs:uplink:01G94ACV289WHYX8E0FXP1CTSZ",
    "ns:uplink:01G94ACV286XXCN65SBCS5WMXS",
    "rpc:/ttn.lorawan.v3.GsNs/HandleUplink:01G94ACV2885J8ZZ45KTVG44GN",
    "rpc:/ttn.lorawan.v3.NsAs/HandleUplink:01G94ACV8T6TYSPWH34RJC427V"
  ],
  "received_at": "2022-07-29T06:30:42.715408072Z",
  "uplink_message": {
    "session_key_id": "AYJIlXmZ1beBNI4gdctPTQ==",
    "f_port": 2,
    "f_cnt": 110,
    "frm_payload": "ChstPxUsQVQN",
    "decoded_payload": {
      "measDurration": 10,
      "measHumidity": 45,
      "measPointsForRMS": 3412,
      "measTemp": 27,
      "rmsCurrent": 0.5827065110206604
    },
    "rx_metadata": [
      {
        "gateway_ids": {
          "gateway_id": "gantner-solutions-v1",
          "eui": "A84041217F604150"
        },
        "time": "2022-07-29T06:30:42.483843Z",
        "timestamp": 437525788,
        "rssi": -37,
        "channel_rssi": -37,
        "snr": 10.2,
        "location": {
          "latitude": 47.079163956660565,
          "longitude": 9.911644756793976,
          "source": "SOURCE_REGISTRY"
        },
        "uplink_token": "CiIKIAoUZ2FudG5lci1zb2x1dGlvbnMtdjESCKhAQSF/YEFQEJy60NABGgwIkv2NlwYQ1cmj8AEg4OrG9N3nsgEqDAiS/Y2XBhC4t9vmAQ==",
        "channel_index": 7
      }
    ],
    "settings": {
      "data_rate": {
        "lora": {
          "bandwidth": 125000,
          "spreading_factor": 7
        }
      },
      "coding_rate": "4/5",
      "frequency": "867900000",
      "timestamp": 437525788,
      "time": "2022-07-29T06:30:42.483843Z"
    },
    "received_at": "2022-07-29T06:30:42.504774689Z",
    "consumed_airtime": "0.056576s",
    "network_ids": {
      "net_id": "000013",
      "tenant_id": "ttn",
      "cluster_id": "eu1",
      "cluster_address": "eu1.cloud.thethings.network"
    }
  }
}
