C:/Users/flba/Desktop/o/en.stm32cubewl_v1-2-0/STM32Cube_FW_WL_V1.2.0/Middlewares/Third_Party/LoRaWAN/Mac/LoRaMacClassB.c:697:6:LoRaMacClassBInit	0	static
C:/Users/flba/Desktop/o/en.stm32cubewl_v1-2-0/STM32Cube_FW_WL_V1.2.0/Middlewares/Third_Party/LoRaWAN/Mac/LoRaMacClassB.c:722:6:LoRaMacClassBSetBeaconState	0	static
C:/Users/flba/Desktop/o/en.stm32cubewl_v1-2-0/STM32Cube_FW_WL_V1.2.0/Middlewares/Third_Party/LoRaWAN/Mac/LoRaMacClassB.c:750:6:LoRaMacClassBSetPingSlotState	0	static
C:/Users/flba/Desktop/o/en.stm32cubewl_v1-2-0/STM32Cube_FW_WL_V1.2.0/Middlewares/Third_Party/LoRaWAN/Mac/LoRaMacClassB.c:757:6:LoRaMacClassBSetMulticastSlotState	0	static
C:/Users/flba/Desktop/o/en.stm32cubewl_v1-2-0/STM32Cube_FW_WL_V1.2.0/Middlewares/Third_Party/LoRaWAN/Mac/LoRaMacClassB.c:764:6:LoRaMacClassBIsAcquisitionInProgress	0	static
C:/Users/flba/Desktop/o/en.stm32cubewl_v1-2-0/STM32Cube_FW_WL_V1.2.0/Middlewares/Third_Party/LoRaWAN/Mac/LoRaMacClassB.c:785:6:LoRaMacClassBBeaconTimerEvent	0	static
C:/Users/flba/Desktop/o/en.stm32cubewl_v1-2-0/STM32Cube_FW_WL_V1.2.0/Middlewares/Third_Party/LoRaWAN/Mac/LoRaMacClassB.c:1050:6:LoRaMacClassBPingSlotTimerEvent	0	static
C:/Users/flba/Desktop/o/en.stm32cubewl_v1-2-0/STM32Cube_FW_WL_V1.2.0/Middlewares/Third_Party/LoRaWAN/Mac/LoRaMacClassB.c:1231:6:LoRaMacClassBMulticastSlotTimerEvent	0	static
C:/Users/flba/Desktop/o/en.stm32cubewl_v1-2-0/STM32Cube_FW_WL_V1.2.0/Middlewares/Third_Party/LoRaWAN/Mac/LoRaMacClassB.c:1450:6:LoRaMacClassBRxBeacon	0	static
C:/Users/flba/Desktop/o/en.stm32cubewl_v1-2-0/STM32Cube_FW_WL_V1.2.0/Middlewares/Third_Party/LoRaWAN/Mac/LoRaMacClassB.c:1612:6:LoRaMacClassBIsBeaconExpected	0	static
C:/Users/flba/Desktop/o/en.stm32cubewl_v1-2-0/STM32Cube_FW_WL_V1.2.0/Middlewares/Third_Party/LoRaWAN/Mac/LoRaMacClassB.c:1626:6:LoRaMacClassBIsPingExpected	0	static
C:/Users/flba/Desktop/o/en.stm32cubewl_v1-2-0/STM32Cube_FW_WL_V1.2.0/Middlewares/Third_Party/LoRaWAN/Mac/LoRaMacClassB.c:1639:6:LoRaMacClassBIsMulticastExpected	0	static
C:/Users/flba/Desktop/o/en.stm32cubewl_v1-2-0/STM32Cube_FW_WL_V1.2.0/Middlewares/Third_Party/LoRaWAN/Mac/LoRaMacClassB.c:1652:6:LoRaMacClassBIsAcquisitionPending	0	static
C:/Users/flba/Desktop/o/en.stm32cubewl_v1-2-0/STM32Cube_FW_WL_V1.2.0/Middlewares/Third_Party/LoRaWAN/Mac/LoRaMacClassB.c:1665:6:LoRaMacClassBIsBeaconModeActive	0	static
C:/Users/flba/Desktop/o/en.stm32cubewl_v1-2-0/STM32Cube_FW_WL_V1.2.0/Middlewares/Third_Party/LoRaWAN/Mac/LoRaMacClassB.c:1679:6:LoRaMacClassBSetPingSlotInfo	0	static
C:/Users/flba/Desktop/o/en.stm32cubewl_v1-2-0/STM32Cube_FW_WL_V1.2.0/Middlewares/Third_Party/LoRaWAN/Mac/LoRaMacClassB.c:1687:6:LoRaMacClassBHaltBeaconing	0	static
C:/Users/flba/Desktop/o/en.stm32cubewl_v1-2-0/STM32Cube_FW_WL_V1.2.0/Middlewares/Third_Party/LoRaWAN/Mac/LoRaMacClassB.c:1715:6:LoRaMacClassBResumeBeaconing	0	static
C:/Users/flba/Desktop/o/en.stm32cubewl_v1-2-0/STM32Cube_FW_WL_V1.2.0/Middlewares/Third_Party/LoRaWAN/Mac/LoRaMacClassB.c:1736:17:LoRaMacClassBSwitchClass	0	static
C:/Users/flba/Desktop/o/en.stm32cubewl_v1-2-0/STM32Cube_FW_WL_V1.2.0/Middlewares/Third_Party/LoRaWAN/Mac/LoRaMacClassB.c:1761:17:LoRaMacClassBMibGetRequestConfirm	0	static
C:/Users/flba/Desktop/o/en.stm32cubewl_v1-2-0/STM32Cube_FW_WL_V1.2.0/Middlewares/Third_Party/LoRaWAN/Mac/LoRaMacClassB.c:1790:17:LoRaMacMibClassBSetRequestConfirm	0	static
C:/Users/flba/Desktop/o/en.stm32cubewl_v1-2-0/STM32Cube_FW_WL_V1.2.0/Middlewares/Third_Party/LoRaWAN/Mac/LoRaMacClassB.c:1814:6:LoRaMacClassBPingSlotInfoAns	0	static
C:/Users/flba/Desktop/o/en.stm32cubewl_v1-2-0/STM32Cube_FW_WL_V1.2.0/Middlewares/Third_Party/LoRaWAN/Mac/LoRaMacClassB.c:1825:9:LoRaMacClassBPingSlotChannelReq	0	static
C:/Users/flba/Desktop/o/en.stm32cubewl_v1-2-0/STM32Cube_FW_WL_V1.2.0/Middlewares/Third_Party/LoRaWAN/Mac/LoRaMacClassB.c:1871:6:LoRaMacClassBBeaconTimingAns	0	static
C:/Users/flba/Desktop/o/en.stm32cubewl_v1-2-0/STM32Cube_FW_WL_V1.2.0/Middlewares/Third_Party/LoRaWAN/Mac/LoRaMacClassB.c:1900:6:LoRaMacClassBDeviceTimeAns	0	static
C:/Users/flba/Desktop/o/en.stm32cubewl_v1-2-0/STM32Cube_FW_WL_V1.2.0/Middlewares/Third_Party/LoRaWAN/Mac/LoRaMacClassB.c:1936:6:LoRaMacClassBBeaconFreqReq	0	static
C:/Users/flba/Desktop/o/en.stm32cubewl_v1-2-0/STM32Cube_FW_WL_V1.2.0/Middlewares/Third_Party/LoRaWAN/Mac/LoRaMacClassB.c:1963:13:LoRaMacClassBIsUplinkCollision	0	static
C:/Users/flba/Desktop/o/en.stm32cubewl_v1-2-0/STM32Cube_FW_WL_V1.2.0/Middlewares/Third_Party/LoRaWAN/Mac/LoRaMacClassB.c:1987:6:LoRaMacClassBStopRxSlots	0	static
C:/Users/flba/Desktop/o/en.stm32cubewl_v1-2-0/STM32Cube_FW_WL_V1.2.0/Middlewares/Third_Party/LoRaWAN/Mac/LoRaMacClassB.c:2000:6:LoRaMacClassBStartRxSlots	0	static
C:/Users/flba/Desktop/o/en.stm32cubewl_v1-2-0/STM32Cube_FW_WL_V1.2.0/Middlewares/Third_Party/LoRaWAN/Mac/LoRaMacClassB.c:2016:6:LoRaMacClassBSetMulticastPeriodicity	0	static
C:/Users/flba/Desktop/o/en.stm32cubewl_v1-2-0/STM32Cube_FW_WL_V1.2.0/Middlewares/Third_Party/LoRaWAN/Mac/LoRaMacClassB.c:2028:6:LoRaMacClassBSetFPendingBit	0	static
C:/Users/flba/Desktop/o/en.stm32cubewl_v1-2-0/STM32Cube_FW_WL_V1.2.0/Middlewares/Third_Party/LoRaWAN/Mac/LoRaMacClassB.c:2057:6:LoRaMacClassBProcess	0	static
