C:/Users/flba/Desktop/o/en.stm32cubewl_v1-2-0/STM32Cube_FW_WL_V1.2.0/Middlewares/Third_Party/LoRaWAN/Mac/Region/RegionBaseUS.c:48:24:FindAvailable125kHzChannels	0	static
C:/Users/flba/Desktop/o/en.stm32cubewl_v1-2-0/STM32Cube_FW_WL_V1.2.0/Middlewares/Third_Party/LoRaWAN/Mac/Region/RegionBaseUS.c:74:17:RegionBaseUSComputeNext125kHzJoinChannel	40	static
C:/Users/flba/Desktop/o/en.stm32cubewl_v1-2-0/STM32Cube_FW_WL_V1.2.0/Middlewares/Third_Party/LoRaWAN/Mac/Region/RegionBaseUS.c:135:6:RegionBaseUSVerifyFrequencyGroup	0	static
C:/Users/flba/Desktop/o/en.stm32cubewl_v1-2-0/STM32Cube_FW_WL_V1.2.0/Middlewares/Third_Party/LoRaWAN/Mac/Region/RegionBaseUS.c:146:10:RegionBaseUSCalcDownlinkFrequency	0	static
