C:/Users/flba/STM32Cube/Repository/STM32Cube_FW_WL_V1.2.0/Drivers/STM32WLxx_HAL_Driver/Src/stm32wlxx_hal_i2c_ex.c:96:19:HAL_I2CEx_ConfigAnalogFilter	0	static
C:/Users/flba/STM32Cube/Repository/STM32Cube_FW_WL_V1.2.0/Drivers/STM32WLxx_HAL_Driver/Src/stm32wlxx_hal_i2c_ex.c:140:19:HAL_I2CEx_ConfigDigitalFilter	0	static
C:/Users/flba/STM32Cube/Repository/STM32Cube_FW_WL_V1.2.0/Drivers/STM32WLxx_HAL_Driver/Src/stm32wlxx_hal_i2c_ex.c:208:19:HAL_I2CEx_EnableWakeUp	0	static
C:/Users/flba/STM32Cube/Repository/STM32Cube_FW_WL_V1.2.0/Drivers/STM32WLxx_HAL_Driver/Src/stm32wlxx_hal_i2c_ex.c:247:19:HAL_I2CEx_DisableWakeUp	0	static
C:/Users/flba/STM32Cube/Repository/STM32Cube_FW_WL_V1.2.0/Drivers/STM32WLxx_HAL_Driver/Src/stm32wlxx_hal_i2c_ex.c:312:6:HAL_I2CEx_EnableFastModePlus	0	static
C:/Users/flba/STM32Cube/Repository/STM32Cube_FW_WL_V1.2.0/Drivers/STM32WLxx_HAL_Driver/Src/stm32wlxx_hal_i2c_ex.c:336:6:HAL_I2CEx_DisableFastModePlus	0	static
