C:/Users/flba/Desktop/o/en.stm32cubewl_v1-2-0/STM32Cube_FW_WL_V1.2.0/Drivers/STM32WLxx_HAL_Driver/Src/stm32wlxx_hal_exti.c:143:19:HAL_EXTI_SetConfigLine	16	static
C:/Users/flba/Desktop/o/en.stm32cubewl_v1-2-0/STM32Cube_FW_WL_V1.2.0/Drivers/STM32WLxx_HAL_Driver/Src/stm32wlxx_hal_exti.c:275:19:HAL_EXTI_GetConfigLine	8	static
C:/Users/flba/Desktop/o/en.stm32cubewl_v1-2-0/STM32Cube_FW_WL_V1.2.0/Drivers/STM32WLxx_HAL_Driver/Src/stm32wlxx_hal_exti.c:375:19:HAL_EXTI_ClearConfigLine	12	static
C:/Users/flba/Desktop/o/en.stm32cubewl_v1-2-0/STM32Cube_FW_WL_V1.2.0/Drivers/STM32WLxx_HAL_Driver/Src/stm32wlxx_hal_exti.c:447:19:HAL_EXTI_RegisterCallback	0	static
C:/Users/flba/Desktop/o/en.stm32cubewl_v1-2-0/STM32Cube_FW_WL_V1.2.0/Drivers/STM32WLxx_HAL_Driver/Src/stm32wlxx_hal_exti.c:473:19:HAL_EXTI_GetHandle	0	static
C:/Users/flba/Desktop/o/en.stm32cubewl_v1-2-0/STM32Cube_FW_WL_V1.2.0/Drivers/STM32WLxx_HAL_Driver/Src/stm32wlxx_hal_exti.c:514:6:HAL_EXTI_IRQHandler	8	static
C:/Users/flba/Desktop/o/en.stm32cubewl_v1-2-0/STM32Cube_FW_WL_V1.2.0/Drivers/STM32WLxx_HAL_Driver/Src/stm32wlxx_hal_exti.c:552:10:HAL_EXTI_GetPending	0	static
C:/Users/flba/Desktop/o/en.stm32cubewl_v1-2-0/STM32Cube_FW_WL_V1.2.0/Drivers/STM32WLxx_HAL_Driver/Src/stm32wlxx_hal_exti.c:588:6:HAL_EXTI_ClearPending	0	static
C:/Users/flba/Desktop/o/en.stm32cubewl_v1-2-0/STM32Cube_FW_WL_V1.2.0/Drivers/STM32WLxx_HAL_Driver/Src/stm32wlxx_hal_exti.c:615:6:HAL_EXTI_GenerateSWI	0	static
